1	(2) env_rpart$pH >= 5.295	ALL1AST	ALL1AWB	ALL1AWT	ALL1BST	ALL1BWB	ALL1BWT	ALL2AST	ALL2AWT	ALL2BST	ALL2BWT	ALL3AST	ALL3AWB	ALL3AWT	ALL3BST	ALL3BWB	ALL3BWT	ALL4AST	ALL4AWB	ALL4AWT	ALL4BST	ALL4BWB	ALL4BWT	ALP1AST	ALP1BSB	ALP1BST	ALP1CSB	ALP1CST	ALP1ESB	ALP1EST	ALP1FSB	ALP1FST	ALP2AST	ALP2AWT	ALP2BSB	ALP2BST	ALP2DWT	ALP2ESB	ALP2EST	ALP3ASB	ALP3AST	ALP3BSB	ALP3BST	ALP3CSB	ALP3DSB	ALP3DST	ALP3ESB	ALP3EST	ALP4DWT	ALP5AST	ALP5AWT	ALP5BSB	ALP5BST	ALP5CSB	ALP5CST	ALP5DST	ALP5DWT	ALP5EST	ALP5FSB	ALP5FST	ALP6AST	ALP6AWT	ALP6BSB	ALP6CSB	ALP6CST	ALS1ASB	ALS1BSB	ALS1BST	ALS2BSB	ALS3ASB	ALS3AST	ALS3BSB	ALS3BST	ALS5BSB	ALS5BST	ALS5DSB	ALS7ASB	ALS7AST	ALS7CST	ALS7DSB	ALS7DST	ALS8ASB	ALS8AST	ALS8BSB	ALS8BST	ALS9ASB	ALS9AST1	ALS9AST2	ALS9BSB	ALS9BST	ALS9CST	PCL1AST	PCL1AWT	PCL1BST	PCL1BWT	PCL2AST	PCL2AWB	PCL2BST	PCL2BWB	PCL3AST	PCL3AWT	PCL3BST	PCL3BWT	PCP1ASB	PCP1AST	PCP2AST	PCP2AWT	PCP2BSB	PCP2DST	PCP2DWT	PCS1ASB	PCS1AST	PCS1BST	PCS1BSB	PPL1AST	PPL1AWB	PPL1AWT	PPL1BST	PPL1BWB	PPL1BWT	PPL1CST	PPL2AST	PPL2AWT	PPL2BST	PPL2BWT	PPL3AWT	PPL3BWT	PPP1DWT	PPS1AST	PPS1BST	PPS1CST	PPS2ASB	PPS2AST	PPS2BSB	PPS2BST	PTL1AST	PTL1BST	PTL2AST	PTL2BST	PTP2AST	PTP2AWT	PTP2DST	PTS1ASB	PTS1AST	PTS1BSB	PTS1BST	SIL1AST	SIL1AWB	SIL1AWT	SIL1BST	SIL1BWB	SIL1BWT	SIL2AST	SIL2AWB	SIL2AWT	SIL2BST	SIL2BWB	SIL2BWT	SIL2DST1	SIL2DST2	SIL2DW2	SIL2DW3	SIL2DW4	SIL2DW5	SIL2DW6	SIL2DW7	SIL2DW8	SIL2DW9	SIL3AST	SIL3AWB	SIL3AWT	SIL3BWB	SIL4AST	SIL4AWB	SIL4AWT	SIL4BST	SIL4BWB	SIL4BWT	SIL5AWT	SIL5BWT	SIP1ASB	SIP1DSB1	SIP1DSB2	SIP1DST	SIP1ESB	SIP1EST	SIP2AST	SIP2AWT	SIP2BSB	SIP2CSB	SIP2DST	SIP2DWT	SIP2ESB	SIP2EST	SIP7AST	SIP7AWT	SIP7BST	SIP7CWT	SIS4ASB
1	(4) env_rpart$pH >= 5.295 & env_rpart$conduc < 45.5	ALL1AST	ALL1BST	ALL2AST	ALL2BST	ALL3AST	ALL3BST	ALL4AST	ALL4BST	ALP1AST	ALP1BSB	ALP1BST	ALP1CSB	ALP1CST	ALP1ESB	ALP1EST	ALP1FSB	ALP1FST	ALP2AST	ALP2AWT	ALP2BSB	ALP2BST	ALP2DWT	ALP2ESB	ALP2EST	ALP3ASB	ALP3AST	ALP3BSB	ALP3BST	ALP3CSB	ALP3DSB	ALP3DST	ALP3ESB	ALP3EST	ALP5AST	ALP5BSB	ALP5BST	ALP5CSB	ALP5CST	ALP5DST	ALP5EST	ALP5FSB	ALP5FST	ALP6AST	ALP6AWT	ALP6BSB	ALP6CSB	ALP6CST	ALS1ASB	ALS1BSB	ALS1BST	ALS2BSB	ALS3ASB	ALS3AST	ALS3BSB	ALS3BST	ALS5BSB	ALS5BST	ALS5DSB	ALS7ASB	ALS7AST	ALS7CST	ALS7DSB	ALS7DST	ALS8ASB	ALS8AST	ALS8BSB	ALS8BST	ALS9ASB	ALS9AST1	ALS9AST2	ALS9BSB	ALS9BST	ALS9CST	PCL1AST	PCL1BST	PCL2AST	PCL2BST	PCL3AST	PCL3BST	PCP1ASB	PCP1AST	PCP2AST	PCP2BSB	PCP2DST	PCS1ASB	PCS1AST	PCS1BST	PCS1BSB	SIL1AST	SIL1BST	SIL2AST	SIL2BST	SIL2DST1	SIL2DST2	SIL3AST	SIL4AST	SIL4BST	SIP1DSB1	SIP1DSB2	SIP1DST	SIP1ESB	SIP2AST	SIP2BSB	SIP2CSB	SIP2DST	SIP2ESB	SIP2EST	SIP7AST	SIP7BST	SIS4ASB
1	(8) env_rpart$pH >= 5.295 & env_rpart$conduc < 45.5 & env_rpart$bio_12 < 352	ALL1AST	ALL1BST	ALL3AST	ALL3BST	ALL4AST	ALL4BST	ALP1AST	ALP1BSB	ALP1BST	ALP1CSB	ALP1CST	ALP1ESB	ALP1EST	ALP1FSB	ALP1FST	ALP3ASB	ALP3AST	ALP3BSB	ALP3BST	ALP3CSB	ALP3DSB	ALP3DST	ALP3ESB	ALP3EST	ALP5AST	ALP5BSB	ALP5BST	ALP5CSB	ALP5CST	ALP5DST	ALP5EST	ALP5FSB	ALP5FST	ALP6AST	ALP6AWT	ALP6BSB	ALP6CSB	ALP6CST	ALS1ASB	ALS1BSB	ALS1BST	ALS5BSB	ALS5BST	ALS5DSB	ALS7ASB	ALS7AST	ALS7CST	ALS7DSB	ALS7DST	ALS8ASB	ALS8AST	ALS8BSB	ALS8BST	ALS9ASB	ALS9AST1	ALS9AST2	ALS9BSB	ALS9BST	ALS9CST
1	(9) env_rpart$pH >= 5.295 & env_rpart$conduc < 45.5 & env_rpart$bio_12 >= 352	ALL2AST	ALL2BST	ALP2AST	ALP2AWT	ALP2BSB	ALP2BST	ALP2DWT	ALP2ESB	ALP2EST	ALS2BSB	ALS3ASB	ALS3AST	ALS3BSB	ALS3BST	PCL1AST	PCL1BST	PCL2AST	PCL2BST	PCL3AST	PCL3BST	PCP1ASB	PCP1AST	PCP2AST	PCP2BSB	PCP2DST	PCS1ASB	PCS1AST	PCS1BST	PCS1BSB	SIL1AST	SIL1BST	SIL2AST	SIL2BST	SIL2DST1	SIL2DST2	SIL3AST	SIL4AST	SIL4BST	SIP1DSB1	SIP1DSB2	SIP1DST	SIP1ESB	SIP2AST	SIP2BSB	SIP2CSB	SIP2DST	SIP2ESB	SIP2EST	SIP7AST	SIP7BST	SIS4ASB
1	(5) env_rpart$pH >= 5.295 & env_rpart$conduc >= 45.5	ALL1AWB	ALL1AWT	ALL1BWB	ALL1BWT	ALL2AWT	ALL2BWT	ALL3AWB	ALL3AWT	ALL3BWB	ALL3BWT	ALL4AWB	ALL4AWT	ALL4BWB	ALL4BWT	ALP4DWT	ALP5AWT	ALP5DWT	PCL1AWT	PCL1BWT	PCL2AWB	PCL2BWB	PCL3AWT	PCL3BWT	PCP2AWT	PCP2DWT	PPL1AWB	PPL1AWT	PPL1BWB	PPL1BWT	PPL2AWT	PPL2BWT	PPL3AWT	PPL3BWT	PTP2AWT	SIL1AWB	SIL1AWT	SIL1BWB	SIL1BWT	SIL2AWB	SIL2AWT	SIL2BWB	SIL2BWT	SIL2DW2	SIL2DW3	SIL2DW4	SIL2DW5	SIL2DW6	SIL2DW7	SIL2DW8	SIL2DW9	SIL3AWB	SIL3AWT	SIL3BWB	SIL4AWB	SIL4AWT	SIL4BWB	SIL4BWT	SIL5AWT	SIL5BWT	SIP1ASB	SIP1EST	SIP2AWT	SIP2DWT
1	(3) env_rpart$pH < 5.295	ALP2CST	ALP2FSB	ALP2FST	ALP3CST	ALP3FSB	ALP3FST	ALP4AST	ALP4BSB	ALP4BST	ALP4CSB	ALP4CST	ALP4DST	ALP4ESB	ALP4EST	ALP4FSB	ALP6BST	ALP6DST	ALP6ESB	ALP6EST	ALP6FSB	ALP6FST	ALS2ASB	ALS2AST	ALS2BST	ALS4ASB	ALS4AST	ALS4BSB	ALS4BST	ALS5ASB	ALS5AST	ALS6ASB	ALS6AST	ALS6BSB	ALS6BST	ALS7BSB	ALS7BST	PCP1BSB	PCP1BST	PCP1CSB	PCP1CST	PCP1DSB	PCP1DST	PCP1ESB	PCP1EST	PCP1FSB	PCP1FST	PCP2BST	PCP2CSB	PCP2CST	PCP2ESB	PCP2EST	PCP2FSB	PCP2FST	PCP3ASB	PCP3AST	PCP3BSB	PCP3BST	PCP3CST	PCP3DWT	PCP3ESB	PCP3EST	PCP3FSB	PCP3FST	PPP1AST	PPP1AWT	PPP1BSB	PPP1BST	PPP1CSB	PPP1CST	PPP1ESB	PPP1EST	PPP1FSB	PPP1FST	PPP2ASB	PPP2AST	PPP2BSB	PPP2BST	PPP2CSB	PPP2CST	PPP2DST	PPP2ESB	PPP2FSB	PPP2FST	PPP3AST	PPP3AWT	PPP3BSB	PPP3BST	PPP3CSB	PPP3CST	PPP3DST	PPP3DWT	PPP3ESB	PPP3EST	PPP3FSB	PPP3FST	PPS1ASB	PPS1BSB	PPS1CSB	PTP1ASB	PTP1AST	PTP1BSB	PTP1BST	PTP1CSB	PTP1CST	PTP1DSB	PTP1DST	PTP1ESB	PTP1EST	PTP1FSB	PTP1FST	PTP2BSB	PTP2BST	PTP2CSB	PTP2CST	PTP2DWT	PTP2ESB	PTP2EST	PTP2FSB	PTP2FST	SIP1BSB	SIP1BST	SIP1CSB	SIP1CST	SIP1FSB	SIP1FST	SIP2BST	SIP2CST	SIP2FSB	SIP2FST	SIP3ASB	SIP3AST	SIP3AWT	SIP3BSB1	SIP3BSB2	SIP3BST1	SIP3BST2	SIP3BWT	SIP3CST	SIP4ASB	SIP4AST	SIP4BSB	SIP4CSB	SIP4CST	SIP4DSB	SIP4DST	SIP5AST	SIP5AWT	SIP5BST	SIP5CST	SIP5DST	SIP5DWT	SIP5ESB	SIP5FSB	SIP6AST	SIP6BSB	SIP6BST	SIP6CST	SIP6DST	SIP6ESB	SIP6FST	SIP7BSB	SIP7DSB	SIP7DST	SIS1ASB	SIS1AST	SIS1BSB	SIS1BST	SIS2ASB	SIS2AST	SIS2BSB	SIS2BST	SIS3ASB	SIS3AST	SIS3BSB	SIS3BST	SIS4AST	SIS4BSB	SIS4BST
1	(6) env_rpart$pH < 5.295 & env_rpart$bio_01 < 4.6833332652847	ALP2CST	ALP2FSB	ALP2FST	ALP3CST	ALP3FSB	ALP3FST	ALP4AST	ALP4BSB	ALP4BST	ALP4CSB	ALP4CST	ALP4DST	ALP4ESB	ALP4EST	ALP4FSB	ALP6BST	ALP6DST	ALP6ESB	ALP6EST	ALP6FSB	ALP6FST	ALS2ASB	ALS2AST	ALS2BST	ALS4ASB	ALS4AST	ALS4BSB	ALS4BST	ALS5ASB	ALS5AST	ALS6ASB	ALS6AST	ALS6BSB	ALS6BST	ALS7BSB	ALS7BST	PPS1ASB	PPS1BSB	PPS1CSB	SIP1BSB	SIP1BST	SIP1CSB	SIP1CST	SIP1FSB	SIP1FST	SIP2BST	SIP2CST	SIP2FSB	SIP2FST	SIP3ASB	SIP3AST	SIP3AWT	SIP3BSB1	SIP3BSB2	SIP3BST1	SIP3BST2	SIP3BWT	SIP3CST	SIP4ASB	SIP4AST	SIP4BSB	SIP4CSB	SIP4CST	SIP4DSB	SIP4DST	SIP5AST	SIP5AWT	SIP5BST	SIP5CST	SIP5DST	SIP5DWT	SIP5ESB	SIP5FSB	SIP6AST	SIP6BSB	SIP6BST	SIP6CST	SIP6DST	SIP6ESB	SIP6FST	SIP7BSB	SIP7DSB	SIP7DST	SIS1ASB	SIS1AST	SIS1BSB	SIS1BST	SIS2ASB	SIS2AST	SIS2BSB	SIS2BST	SIS3ASB	SIS3AST	SIS3BSB	SIS3BST	SIS4AST	SIS4BSB	SIS4BST
1	(12) env_rpart$pH < 5.295 & env_rpart$bio_01 < 4.6833332652847 & env_rpart$dry_wgh >= 0.06053798935	ALP2CST	ALP3FSB	ALP4AST	ALP4DST	ALP4ESB	ALP4EST	ALP4FSB	ALP6BST	ALS2ASB	ALS2AST	ALS2BST	ALS5ASB	ALS5AST	ALS7BSB	ALS7BST	PPS1ASB	PPS1BSB	SIP1BSB	SIP1BST	SIP1CSB	SIP1CST	SIP1FSB	SIP1FST	SIP2BST	SIP2CST	SIP2FSB	SIP2FST	SIP3CST	SIP4ASB	SIP4AST	SIP4BSB	SIP4CSB	SIP4CST	SIP4DSB	SIP4DST	SIP5BST	SIP5CST	SIP5ESB	SIP5FSB	SIP6BSB	SIP6BST	SIP6CST	SIP6ESB	SIP6FST	SIP7BSB	SIP7DSB	SIP7DST	SIS1ASB	SIS1AST	SIS1BSB	SIS1BST	SIS2ASB	SIS2AST	SIS2BSB	SIS2BST	SIS3ASB	SIS3AST	SIS3BSB	SIS3BST	SIS4AST	SIS4BSB	SIS4BST
1	(13) env_rpart$pH < 5.295 & env_rpart$bio_01 < 4.6833332652847 & env_rpart$dry_wgh < 0.06053798935	SIP3ASB	SIP3AST	SIP3AWT	SIP3BSB1	SIP3BSB2	SIP3BST1	SIP3BST2	SIP3BWT	SIP5AST	SIP5AWT	SIP5DST	SIP5DWT	SIP6AST	SIP6DST
1	(7) env_rpart$pH < 5.295 & env_rpart$bio_01 >= 4.6833332652847	PCP1BSB	PCP1BST	PCP1CSB	PCP1CST	PCP1DSB	PCP1DST	PCP1ESB	PCP1EST	PCP1FSB	PCP1FST	PCP2BST	PCP2CSB	PCP2CST	PCP2ESB	PCP2EST	PCP2FSB	PCP2FST	PCP3ASB	PCP3AST	PCP3BSB	PCP3BST	PCP3CST	PCP3DWT	PCP3ESB	PCP3EST	PCP3FSB	PCP3FST	PPP1AST	PPP1AWT	PPP1BSB	PPP1BST	PPP1CSB	PPP1CST	PPP1ESB	PPP1EST	PPP1FSB	PPP1FST	PPP2ASB	PPP2AST	PPP2BSB	PPP2BST	PPP2CSB	PPP2CST	PPP2DST	PPP2ESB	PPP2FSB	PPP2FST	PPP3AST	PPP3AWT	PPP3BSB	PPP3BST	PPP3CSB	PPP3CST	PPP3DST	PPP3DWT	PPP3ESB	PPP3EST	PPP3FSB	PPP3FST	PTP1ASB	PTP1AST	PTP1BSB	PTP1BST	PTP1CSB	PTP1CST	PTP1DSB	PTP1DST	PTP1ESB	PTP1EST	PTP1FSB	PTP1FST	PTP2BSB	PTP2BST	PTP2CSB	PTP2CST	PTP2DWT	PTP2ESB	PTP2EST	PTP2FSB	PTP2FST
1	(14) env_rpart$pH < 5.295 & env_rpart$bio_01 >= 4.6833332652847 & env_rpart$dry_wgh >= 0.0437739632	PCP1BST	PCP1CSB	PCP1CST	PCP1DSB	PCP1DST	PCP1ESB	PCP1EST	PCP1FSB	PCP1FST	PCP2CSB	PCP2CST	PCP2ESB	PCP2EST	PCP2FSB	PCP2FST	PCP3AST	PCP3BSB	PCP3BST	PCP3CST	PCP3ESB	PCP3EST	PCP3FSB	PCP3FST	PPP1AST	PPP1BSB	PPP1BST	PPP1CSB	PPP1CST	PPP1EST	PPP1FSB	PPP1FST	PPP2AST	PPP2BSB	PPP2BST	PPP2CSB	PPP2CST	PPP2DST	PPP2ESB	PPP2FSB	PPP2FST	PPP3BSB	PPP3BST	PPP3CSB	PPP3CST	PPP3ESB	PPP3EST	PPP3FSB	PPP3FST	PTP1ASB	PTP1AST	PTP1BSB	PTP1BST	PTP1CSB	PTP1CST	PTP1DSB	PTP1DST	PTP1ESB	PTP1EST	PTP1FSB	PTP1FST	PTP2BSB	PTP2BST	PTP2CSB	PTP2CST	PTP2ESB	PTP2EST	PTP2FSB	PTP2FST
1	(15) env_rpart$pH < 5.295 & env_rpart$bio_01 >= 4.6833332652847 & env_rpart$dry_wgh < 0.0437739632	PCP1BSB	PCP2BST	PPP1AWT	PPP1ESB	PPP2ASB	PPP3AST	PPP3AWT	PPP3DST	PTP2DWT
